{
	"name": "dashboardproviderv1",
	"parent_idmenu": 0,
	"general_text": "Dashboard Provider",
	"description": "Deskripsi Dashboard Provider Module Dashboard Provider di Simpeg eXML",
	"general_iconclass": "icon-gears",
	"general_identify": "",
	"general_idbutton": "mbutton_dashboardproviderv1_module",
	"general_idnewtab_popup": "newtab_dashboardproviderv1_module",
	"general_url": "",
	"general_type": "TabPage",
	"general_bottombreak": false,
	"general_ismenu": true,
	"general_variableprefix": "dashboardproviderv1_module",
	"general_status": "Active",
	"process_view": true,
	"process_tambah": true,
	"process_ubah": true,
	"process_hapus": true,
	"process_proses": true,
	"process_cetak": true,
	"process_cetaksk": true,
	"widget_notifikasi": "",
	"widget_ess": "",
	"widget_profilPNS": "",
	"widget_referensi": "",
	"widget_browseref": "",
	"widget_dashboard": "dashboardproviderv1\/widget_dashboard"
}